---- GET html page ----

GET / HTTP/1.1
Host: www.w3.org
Connection: keep-alive
Accept: text/html,application/xhtml+xml,application/xml;q=0.9,*/*;q=0.8
User-Agent: Mozilla/5.0 (Windows NT 6.1; WOW64) AppleWebKit/537.36 (KHTML, like Gecko) Chrome/29.0.1547.66 Safari/537.36
Referer: https://www.google.com.ua/
Accept-Encoding: gzip,deflate,sdch
Accept-Language: ru-RU,ru;q=0.8,en-US;q=0.6,en;q=0.4
Cookie: __utma=52716334.1451771490.1377846985.1377846985.1377846985.1; __utmz=52716334.1377846985.1.1.utmcsr=(direct)|utmccn=(direct)|utmcmd=(none)

HTTP/1.1 200 OK
Date: Mon, 09 Sep 2013 16:09:33 GMT
Server: Apache/2
Content-Location: Home.html
Vary: negotiate,accept
TCN: choice
Last-Modified: Fri, 06 Sep 2013 16:33:26 GMT
ETag: "8306-4e5b999082180;89-3f26bd17a2f00"
Accept-Ranges: bytes
Content-Length: 33542
Cache-Control: max-age=600
Expires: Mon, 09 Sep 2013 16:19:33 GMT
P3P: policyref="http://www.w3.org/2001/05/P3P/p3p.xml"
Content-Type: text/html; charset=utf-8
